<?xml version="1.0" encoding="UTF-8"?>
<testng-results skipped="0" failed="0" total="3" passed="3">
  <reporter-output>
  </reporter-output>
  <suite name="HDFSuite" duration-ms="51773" started-at="2017-12-12T15:20:36Z" finished-at="2017-12-12T15:21:28Z">
    <groups>
      <group name="AddEmployee">
        <method signature="ModuleName_02.AddEmployee()[pri:0, instance:org.neosoft.test.ModuleName_02@735f7ae5]" name="AddEmployee" class="org.neosoft.test.ModuleName_02"/>
      </group> <!-- AddEmployee -->
      <group name="JobTitle">
        <method signature="ModuleName_02.AddJobTitle()[pri:0, instance:org.neosoft.test.ModuleName_02@735f7ae5]" name="AddJobTitle" class="org.neosoft.test.ModuleName_02"/>
        <method signature="ModuleName_02.DeleteJobTitle()[pri:0, instance:org.neosoft.test.ModuleName_02@735f7ae5]" name="DeleteJobTitle" class="org.neosoft.test.ModuleName_02"/>
      </group> <!-- JobTitle -->
    </groups>
    <test name="HDFTest" duration-ms="51773" started-at="2017-12-12T15:20:36Z" finished-at="2017-12-12T15:21:28Z">
      <class name="org.neosoft.test.ModuleName_02">
        <test-method status="PASS" signature="beforeSuite(java.lang.String, java.lang.String)[pri:0, instance:org.neosoft.test.ModuleName_02@735f7ae5]" name="beforeSuite" is-config="true" duration-ms="1058" started-at="2017-12-12T20:50:35Z" finished-at="2017-12-12T20:50:36Z">
          <params>
            <param index="0">
              <value>
                <![CDATA[.\\testdata\\TestScenario.xlsx]]>
              </value>
            </param>
            <param index="1">
              <value>
                <![CDATA[Admin]]>
              </value>
            </param>
          </params>
          <reporter-output>
          </reporter-output>
        </test-method> <!-- beforeSuite -->
        <test-method status="PASS" signature="beforeMethod()[pri:0, instance:org.neosoft.test.ModuleName_02@735f7ae5]" name="beforeMethod" is-config="true" duration-ms="1" started-at="2017-12-12T20:50:36Z" finished-at="2017-12-12T20:50:36Z">
          <reporter-output>
          </reporter-output>
        </test-method> <!-- beforeMethod -->
        <test-method status="PASS" signature="AddEmployee()[pri:0, instance:org.neosoft.test.ModuleName_02@735f7ae5]" name="AddEmployee" duration-ms="16643" started-at="2017-12-12T20:50:36Z" finished-at="2017-12-12T20:50:53Z">
          <reporter-output>
          </reporter-output>
        </test-method> <!-- AddEmployee -->
        <test-method status="PASS" signature="afterMethod(org.testng.ITestResult)[pri:0, instance:org.neosoft.test.ModuleName_02@735f7ae5]" name="afterMethod" is-config="true" duration-ms="399" started-at="2017-12-12T20:50:53Z" finished-at="2017-12-12T20:50:53Z">
          <params>
            <param index="0">
              <value>
                <![CDATA[[TestResult name=AddEmployee status=SUCCESS method=ModuleName_02.AddEmployee()[pri:0, instance:org.neosoft.test.ModuleName_02@735f7ae5] output={null}]]]>
              </value>
            </param>
          </params>
          <reporter-output>
          </reporter-output>
        </test-method> <!-- afterMethod -->
        <test-method status="PASS" signature="beforeMethod()[pri:0, instance:org.neosoft.test.ModuleName_02@735f7ae5]" name="beforeMethod" is-config="true" duration-ms="0" started-at="2017-12-12T20:50:53Z" finished-at="2017-12-12T20:50:53Z">
          <reporter-output>
          </reporter-output>
        </test-method> <!-- beforeMethod -->
        <test-method status="PASS" signature="AddJobTitle()[pri:0, instance:org.neosoft.test.ModuleName_02@735f7ae5]" name="AddJobTitle" duration-ms="17940" started-at="2017-12-12T20:50:53Z" finished-at="2017-12-12T20:51:11Z">
          <reporter-output>
          </reporter-output>
        </test-method> <!-- AddJobTitle -->
        <test-method status="PASS" signature="afterMethod(org.testng.ITestResult)[pri:0, instance:org.neosoft.test.ModuleName_02@735f7ae5]" name="afterMethod" is-config="true" duration-ms="243" started-at="2017-12-12T20:51:11Z" finished-at="2017-12-12T20:51:11Z">
          <params>
            <param index="0">
              <value>
                <![CDATA[[TestResult name=AddJobTitle status=SUCCESS method=ModuleName_02.AddJobTitle()[pri:0, instance:org.neosoft.test.ModuleName_02@735f7ae5] output={null}]]]>
              </value>
            </param>
          </params>
          <reporter-output>
          </reporter-output>
        </test-method> <!-- afterMethod -->
        <test-method status="PASS" signature="DeleteJobTitle()[pri:0, instance:org.neosoft.test.ModuleName_02@735f7ae5]" name="DeleteJobTitle" duration-ms="16341" started-at="2017-12-12T20:51:11Z" finished-at="2017-12-12T20:51:28Z">
          <reporter-output>
          </reporter-output>
        </test-method> <!-- DeleteJobTitle -->
        <test-method status="PASS" signature="beforeMethod()[pri:0, instance:org.neosoft.test.ModuleName_02@735f7ae5]" name="beforeMethod" is-config="true" duration-ms="0" started-at="2017-12-12T20:51:11Z" finished-at="2017-12-12T20:51:11Z">
          <reporter-output>
          </reporter-output>
        </test-method> <!-- beforeMethod -->
        <test-method status="PASS" signature="afterMethod(org.testng.ITestResult)[pri:0, instance:org.neosoft.test.ModuleName_02@735f7ae5]" name="afterMethod" is-config="true" duration-ms="196" started-at="2017-12-12T20:51:28Z" finished-at="2017-12-12T20:51:28Z">
          <params>
            <param index="0">
              <value>
                <![CDATA[[TestResult name=DeleteJobTitle status=SUCCESS method=ModuleName_02.DeleteJobTitle()[pri:0, instance:org.neosoft.test.ModuleName_02@735f7ae5] output={null}]]]>
              </value>
            </param>
          </params>
          <reporter-output>
          </reporter-output>
        </test-method> <!-- afterMethod -->
        <test-method status="PASS" signature="afterSuite()[pri:0, instance:org.neosoft.test.ModuleName_02@735f7ae5]" name="afterSuite" is-config="true" duration-ms="217" started-at="2017-12-12T20:51:28Z" finished-at="2017-12-12T20:51:28Z">
          <reporter-output>
          </reporter-output>
        </test-method> <!-- afterSuite -->
      </class> <!-- org.neosoft.test.ModuleName_02 -->
    </test> <!-- HDFTest -->
  </suite> <!-- HDFSuite -->
</testng-results>
